// Jest Snapshot v1, https://goo.gl/fbAQLP

exports[`Item snapshot render should item render 1`] = `
<DocumentFragment>
  <div
    class="root"
  >
    <div
      class="favourites"
    >
      <svg>
        star-plus.svg
      </svg>
    </div>
    <p />
    <img />
    <span>
      price: $ 
    </span>
    <span>
      article:  
    </span>
    <span>
      color:  
    </span>
    <button
      class="MuiButton-root MuiButton-outlined MuiButton-outlinedPrimary MuiButton-sizeLarge MuiButton-outlinedSizeLarge MuiButtonBase-root  css-9y1egq-MuiButtonBase-root-MuiButton-root"
      tabindex="0"
      type="button"
    >
      BASKET
      <span
        class="MuiTouchRipple-root css-8je8zh-MuiTouchRipple-root"
      />
    </button>
  </div>
</DocumentFragment>
`;
